8BITCONV ON
ABAUD    9600
AUTOLF   ON
AX25L2V2 ON
AXDELAY  0
AXHANG   0
BEACON   EVERY 10 min
BKONDEL  ON
BLT      
1 EVERY 01:00:00 STARTING AT 00:00:38
2 EVERY 00:10:00 STARTING AT 00:04:38
3 EVERY 00:10:00 STARTING AT 00:06:38
4 EVERY 00:10:00 STARTING AT 00:08:38
BREAK    OFF
BTEXT    ;146.800- *111111z4544.48N/11802.14WrT123 R140m Net 7PM Spout Springs Rprt Assn WF7S SSRA.net
BUDLIST  OFF NONE
A Link state is: DISCONNECTED
CANLINE  $18 (CTRL-X)
CANPAC   $19 (CTRL-Y)
CD       SOFTWARE
CHECK    0 (disabled)
CMDTIME  1 (1 sec)
CMSG     OFF
COMMAND  $03 (CTRL-C)
CONLIST  OFF NONE
CONMODE  CONVERS
CONOK    ON
CONPERM  OFF
CPACTIME OFF
CR       ON
CRSUP    OFF
CSTAMP   OFF
CTEXT    
CTRL     A OFF   B OFF
CWID     EVERY 0 (disabled)
CWIDTEXT DE WF7S
DAYTIME  06/29/2020 22:28:14
DAYTWEAK 8
DAYSTR   mm/dd/yyyy hh:mm:ss
DAMA     OFF
DAMACHCK 18 (180 sec)
DBLDISC  OFF
DELETE   $08 (CTRL-H)
DIGIPEAT ON
DWAIT    0
ECHO     ON
ESCAPE   OFF
FLOW     ON
FILTER   OFF
FRACK    4 (4 sec)
FULLDUP  OFF
GPSHEAD  
1 $GPGGA
2 
3 
4 
GPSINIT  
GPSPORT  0 NORMAL CHECKSUM
GPSTIME  VALID RMC
HBAUD    1200
HEADERLN ON
HID      OFF
HTEXT    
INTFACE  TERMINAL
KNTIMER  15 min
LEDS     ON
LCOK     ON
LFADD    OFF
LFSUP    OFF
LGETCHAR $05 (CTRL-E)
LLIST    OFF NONE
LT       
1 !4544.48NS11802.14W#PHG5750 W2, ORn-N, Tollgate WF7S SSRA.net
2 !4544.48NS11802.14W#PHG5750 W2, ORn-N, Tollgate WF7S SSRA.net
3 ;WIR-21979*111111z4544.48NW11802.14W0146.800MHz T123 WiRES-X WF7S SSRA.net
4 ;EL-835368*111111z4544.48NE11802.14W0146.800MHz T123 Echolink WF7S SSRA.net
LTP      
1 APN383 VIA WIDE2-2
2 APN383
3 APN383
4 APN383
LTRACK   0
MONITOR  ON
MALL     ON
MAXFRAME 4
MAXUSERS 10
MBEACON  ON
MCON     OFF
MCOM     ON
MHEADER  ON
MRESP    ON
MRPT     ON
MSTAMP   ON
MXMIT    ON
MYCALL   SPOUT
MYALIAS  disabled
MYDGPS   disabled
MYDROP   0
MYNODE   WF7S-7
MYPBBS   WF7S-1
MYREMOTE WF7S-12
NDWILD   OFF
NEWMODE  ON
NOMODE   OFF
NTEXT    
NUMNODES 0
PACLEN   128
PACTIME  AFTER 10 (1000 msec)
PASS     $16 (CTRL-V)
PASSALL  OFF
PBBS     100
PBFORWRD NONE  EVERY 0 (disabled)
PBHEADER ON
PBHOLD   ON
PBKILLFW OFF
PBLIST   OFF NONE
PBLO     NEW VARIABLE
PBPERSON OFF
PBREVERS ON
PERSIST  63 (25%)
PID      OFF
PMODE    CMD
PTEXT    
REDISPLA $12 (CTRL-R)
RELINK   OFF
RETRY    10
RING     ON
RNRTIME  0 (disabled)
RTEXT    *******  (Secret text known only to control operator so you can access remotely)
SCREENL  0
SENDPAC  $0D (CTRL-M)
SLOTTIME 10 (100 msec)
START    $11 (CTRL-Q)
STOP     $13 (CTRL-S)
STREAMSW $7C (|)
STREAMCA OFF
STREAMEV OFF
SUPLIST  OFF NONE
SWP      17,17,108
TELEMTRY 0 (disabled)
TRACE    OFF
TRFLOW   OFF
TRIES    10
TXDELAY  18 (180 msec)
TXFLOW   OFF
UNPROTO  APN383
UIDIGI   ON WIDE4-4,WIDE5-5,WIDE6-6,WIDE7-7
UIDWAIT  OFF
UIFLOOD  OR,30,ID
UITRACE  WIDE,30
USERS    1
XFLOW    ON
XKCHKSUM OFF
XKPOLLED OFF
XMITLVL  100
XMITOK   ON
XOFF     $13 (CTRL-S)
XON      $11 (CTRL-Q)
